   <soapenv:Header xmlns:soapenv="http://schemas.xmlsoap.org/soap/envelope/" xmlns:urn="urn:be.services.dcl" xmlns:urn1="urn:card.entities.be.dcl" xmlns:urn2="urn:accounts.entities.be.dcl" xmlns:urn3="urn:crddict.dictionaries.be.dcl" xmlns:urn4="urn:dictionaries.be.dcl" xmlns:urn5="urn:cif.entities.be.dcl">
      <urn:header>
         <urn:msgHeader>
            <urn:msgId>xxx0000</urn:msgId>
            <urn:companyId>587</urn:companyId>
            <urn:unitId>587</urn:unitId>
            <urn:userId>9991</urn:userId>
            <urn:appId>0000</urn:appId>
            <urn:timestamp>?</urn:timestamp>
         </urn:msgHeader>
         <!--Optional:-->
         <urn:transHeader>
            <urn:transId>JTYsetNewDtCrd0002</urn:transId>
         </urn:transHeader>
      </urn:header>
   </soapenv:Header>
   
   
      <urn:invoke xmlns:soapenv="http://schemas.xmlsoap.org/soap/envelope/" xmlns:urn="urn:be.services.dcl" xmlns:urn1="urn:card.entities.be.dcl" xmlns:urn2="urn:accounts.entities.be.dcl" xmlns:urn3="urn:crddict.dictionaries.be.dcl" xmlns:urn4="urn:dictionaries.be.dcl" xmlns:urn5="urn:cif.entities.be.dcl">
         <urn:card>
            <urn1:Card>
               <!--Optional:-->
               <urn1:bin>421352</urn1:bin>
               <!--Optional:-->
               <urn1:cardType>A</urn1:cardType>
               <!--Optional:-->
               <urn1:embossName1>OJ BIADA</urn1:embossName1>
               <!--Optional:-->
               <urn1:embossName2>OJ BIADA</urn1:embossName2>
               <!--Optional:-->
               <urn1:debitCard>
                  <!--Optional:-->
                  <urn1:DebitCard>
                     <!--Optional:-->
                     <urn1:pinMailer>80200</urn1:pinMailer>
                     <!--Optional:-->
                     <urn1:processingOptionFlag3>True</urn1:processingOptionFlag3>
                     <!--Optional:-->
                     <urn1:contract>False</urn1:contract>
                     <!--Optional:-->
                     <urn1:cashLimit>2000000.</urn1:cashLimit>
                     <!--Optional:-->
                     <!--Optional:-->
                     <urn1:express>false</urn1:express>
                     <!--Optional:-->
                     <urn1:policy>false</urn1:policy>
                     <!--Optional:-->
                     <urn1:individualTranList>true</urn1:individualTranList>
                     <!--Optional:-->
                     <urn1:collectiveTranList>false</urn1:collectiveTranList>
                     <!--Optional:-->
                     <urn1:tranAccount>
                        <!--Optional:-->
                        <urn2:TranAccount>
                           <!--Optional:-->
                           <urn2:account>
                              <!--Optional:-->
                              <urn2:Account>
                                 <!--Optional:-->
                                 <urn2:accountNumber>00103424408</urn2:accountNumber>
                              </urn2:Account>
                           </urn2:account>
                        </urn2:TranAccount>
                     </urn1:tranAccount>
                     <!--Optional:-->
                     <urn1:addressFlag>
                        <!--Optional:-->
                        <urn3:CrdAddressFlag>
                           <!--Optional:-->
                           <urn3:crdAddressFlag>0</urn3:crdAddressFlag>
                        </urn3:CrdAddressFlag>
                     </urn1:addressFlag>
                     <!--Optional:-->
                     <urn1:cardAddressBranchNumber>
                        <!--Optional:-->
                        <urn4:BranchCode>
                           <!--Optional:-->
                        </urn4:BranchCode>
                     </urn1:cardAddressBranchNumber>
                  </urn1:DebitCard>
               </urn1:debitCard>
               <!--Optional:-->
               <urn1:customer>
                  <!--Optional:-->
                  <urn5:Customer>
                     <!--Optional:-->
                     <urn5:customerNumber>1000556044</urn5:customerNumber>
                  </urn5:Customer>
               </urn1:customer>
            </urn1:Card>
         </urn:card>
      </urn:invoke>
 
